<?xml version="1.0" encoding="UTF-8"?>
<session version="1.0">
<refactoring comment="Rename type &apos;Exercise1&apos; to &apos;AgeAppCalculator&apos;&#x0D;&#x0A;- Original project: &apos;Exercise1&apos;&#x0D;&#x0A;- Original element: &apos;Exercise1&apos;&#x0D;&#x0A;- Renamed element: &apos;AgeAppCalculator&apos;&#x0D;&#x0A;- Update references to refactored element&#x0D;&#x0A;- Update textual occurrences in comments and strings" description="Rename type &apos;Exercise1&apos;" flags="589830" id="org.eclipse.jdt.ui.rename.type" input="/src&lt;{Exercise1.java[Exercise1" matchStrategy="1" name="AgeAppCalculator" qualified="false" references="true" similarDeclarations="false" stamp="1573808701185" textual="false" version="1.0"/>
</session>