<?xml version="1.0" encoding="UTF-8"?>
<session version="1.0">
<refactoring comment="Rename field &apos;body&apos; in &apos;lib.User&apos; to &apos;user&apos;&#x0D;&#x0A;- Original project: &apos;ChatAppGradle&apos;&#x0D;&#x0A;- Original element: &apos;lib.User.body&apos;&#x0D;&#x0A;- Renamed element: &apos;lib.User.user&apos;&#x0D;&#x0A;- Update references to refactored element&#x0D;&#x0A;- Update textual occurrences in comments and strings" delegate="false" deprecate="false" description="Rename field &apos;body&apos;" flags="589826" getter="false" id="org.eclipse.jdt.ui.rename.field" input="/src\/main\/java&lt;lib{User.java[User^body" name="user" references="true" setter="false" stamp="1608148045812" textual="false" version="1.0"/>
</session>