INDEX VERSION 1.131+D:\java_curs\home4\.metadata\.plugins\org.eclipse.jdt.core
1562874044.index
706781226.index
379664343.index
3973945260.index
2755271588.index
2060039664.index
646436966.index
3005870480.index
3384131066.index
364096953.index
2772419465.index
2975910402.index
165794779.index
4069293921.index
4120324546.index
753608048.index
1459523266.index
3429681154.index
1151569180.index
2845807539.index
3572716771.index
